{
  "count": 125,
  "next": "http://boxsportscenter.com/api/bookings/?limit=100&offset=100",
  "previous": null,
  "results": [
    {
      "id": 1,
      "hourly_rate": null,
      "sport_field_schedule": {
        "id": 6,
        "availability": null,
        "start_hour_string": "13:00",
        "end_hour_string": "14:00",
        "date_created": "2020-02-25T16:17:29.737701Z",
        "start_hour": 13,
        "end_hour": 14,
        "hour_duration": 1,
        "days_available": ["Mon", "Tue", "Wed", "Thu", "Fri", "Sat", "Sun"],
        "active": true,
        "sport_field": 1
      },
      "date_created": "2020-02-25T16:18:19.190842Z",
      "customer_note": null,
      "schedule": "2020-02-27",
      "status": "paid",
      "payment_due": "2020-02-25T18:18:19.176811Z",
      "price": 50000.0,
      "customer": 1
    },
    {
      "id": 2,
      "hourly_rate": null,
      "sport_field_schedule": {
        "id": 5,
        "availability": null,
        "start_hour_string": "12:00",
        "end_hour_string": "13:00",
        "date_created": "2020-02-25T16:17:29.737640Z",
        "start_hour": 12,
        "end_hour": 13,
        "hour_duration": 1,
        "days_available": ["Mon", "Tue", "Wed", "Thu", "Fri", "Sat", "Sun"],
        "active": true,
        "sport_field": 2
      },
      "date_created": "2020-02-25T16:18:19.190975Z",
      "customer_note": null,
      "schedule": "2020-02-27",
      "status": "paid",
      "payment_due": "2020-02-25T18:18:19.176811Z",
      "price": 50000.0,
      "customer": 1
    },
    {
      "id": 3,
      "hourly_rate": null,
      "sport_field_schedule": {
        "id": 4,
        "availability": null,
        "start_hour_string": "11:00",
        "end_hour_string": "12:00",
        "date_created": "2020-02-25T16:17:29.737579Z",
        "start_hour": 11,
        "end_hour": 12,
        "hour_duration": 1,
        "days_available": ["Mon", "Tue", "Wed", "Thu", "Fri", "Sat", "Sun"],
        "active": true,
        "sport_field": 3
      },
      "date_created": "2020-02-25T16:18:19.191071Z",
      "customer_note": null,
      "schedule": "2020-02-27",
      "status": "paid",
      "payment_due": "2020-02-25T18:18:19.176811Z",
      "price": 50000.0,
      "customer": 1
    },
    {
      "id": 3,
      "hourly_rate": null,
      "sport_field_schedule": {
        "id": 4,
        "availability": null,
        "start_hour_string": "08:00",
        "end_hour_string": "12:00",
        "date_created": "2020-02-25T16:17:29.737579Z",
        "start_hour": 11,
        "end_hour": 12,
        "hour_duration": 1,
        "days_available": ["Mon", "Tue", "Wed", "Thu", "Fri", "Sat", "Sun"],
        "active": true,
        "sport_field": 3
      },
      "date_created": "2020-02-25T16:18:19.191071Z",
      "customer_note": null,
      "schedule": "2020-02-27",
      "status": "paid",
      "payment_due": "2020-02-25T18:18:19.176811Z",
      "price": 50000.0,
      "customer": 1
    }
  ]
}
